790150 282625 509
556143 329584 470
975880 608795 525
794142 940500 525
696723 774008 504
778707 503278 509
345376 124706 443
23402 919131 525
190110 568980 470
1671 407632 443
663811 273036 509
978672 363642 525
376730 475622 449
126506 490314 449
706526 277372 509
639086 675044 442
848462 256359 525
339681 554167 470
872502 892130 445
566942 908798 525
234353 596924 470
827067 278629 509
585173 927756 525
110000 617697 470
263565 712092 509
909264 22076 525
50806 235594 443
67267 330875 443
445126 126781 449
124241 721716 509
306518 240927 407
315682 63494 443
209356 705174 509
613058 763890 509
60738 727718 509
382963 483134 449
56318 510025 449
370149 288383 441
148120 567071 470
568971 415628 470
533201 346090 470
814942 176821 509
996568 603668 525
777251 340584 509
610374 364633 470
93254 348394 443
913570 578287 525
162306 106513 383
454908 651751 509
942104 759638 525
505976 29236 449
908615 91094 525
660139 333964 509
617889 180154 470
445765 526546 470
278794 151743 443
761904 853674 525
191807 371714 443
388810 709304 509
341977 671447 509
104526 164715 383
628462 895013 525
447636 72176 449
481173 935844 525
292708 236550 407
265481 394474 441
141957 933121 525
380014 199287 443
164268 834130 509
290473 346953 441
884967 21097 525
854550 994768 507
489579 980135 525
355923 113461 443
695631 429148 509
729688 755374 424
910173 977622 507
874976 353972 525
11106 35289 311
40399 843087 525
910829 359474 525
129801 881078 525
938101 643148 525
828313 828619 274
852189 542614 525
866169 243343 525
376751 563786 470
551948 313397 470
816706 997934 525
992199 183848 525
505363 73246 449
233570 481903 449
518321 497086 470
239708 590401 470
647046 272463 509
719910 843519 525
430130 487420 444
787819 327477 509
882166 62919 525
51676 502864 449
210989 361983 443
315133 313862 309
360450 235842 441
81694 469958 449
868459 172424 525
670341 499863 509
670046 439993 509
168745 172048 334
691184 332499 509
631440 762428 504
867276 746530 525
362346 266059 441
977733 83217 525
202889 133975 383
554145 327550 470
552483 99715 470
493911 693651 509
701431 374865 509
390583 83706 443
928983 856420 476
83948 415739 449
609281 52808 470
861309 200600 525
933943 943643 507
936496 55371 525
818536 696888 504
337211 44221 443
69995 57364 335
918699 479046 525
429029 65791 449
549166 667362 509
98964 709226 509
241955 695940 509
761190 721580 424
109025 626097 470
713928 188798 509
6462 32065 308
843356 659964 525
260203 723111 509
436964 160730 449
794188 254213 509
190125 54957 383
700747 727608 504
772300 224137 509
371016 482265 449
170924 476713 449
673282 799493 504
62764 336132 443
625001 479759 470
729730 424133 509
512006 390164 470
685643 226911 509
704030 231393 509
31244 583524 470
683301 38700 509
178276 40000 383
264351 157131 443
690839 790368 504
271246 751774 509
88692 690987 509
804731 565707 509
755834 597402 509
666615 574622 509
992512 170258 525
985752 846822 507
111552 861820 525
738065 30862 509
170674 498272 449
94147 243951 443
172491 876439 525
354765 591010 470
903067 105329 525
663231 406088 509
80112 872546 525
740528 686681 504
79185 459844 449
14175 66047 340
162267 371445 443
850666 762400 525
925343 560730 525
125191 481455 449
522834 580749 452
902281 511944 525
896341 943262 507
294775 876658 525
612012 241948 470
601970 245670 470
471126 731935 509
554267 317133 470
717593 225778 509
1207 237625 443
281121 643125 509
763952 343290 509
894179 97731 525
770905 532499 509
122923 77835 354
640821 162106 509
224766 944801 525
509049 327889 449
210159 672951 509
270204 640778 509
50801 559021 470
463979 527825 470
518564 278748 470
458852 577262 470
782784 917933 525
478525 832678 509
45384 153186 375
634508 398722 509
127900 805901 509
301561 512196 470
324660 211984 443
431978 83106 449
124763 23225 354
318924 707443 509
469939 894219 525
92301 674055 509
434712 171820 449
576035 658534 509
812116 899065 525
951148 640674 525
258752 513420 470
181144 965948 525
138173 386164 443
654368 232272 509
540777 450897 470
67832 481177 449
900341 791258 525
105792 645104 509
591676 542218 452
892419 960394 507
619097 536627 452
149870 79431 375
705898 715061 411
366747 900062 525
299214 360399 441
259565 554729 470
41936 262510 443
222009 890887 525
737229 470214 509
372086 277856 441
592764 730668 509
623080 108553 470
524008 72762 470
234324 356110 441
908622 972979 507
19818 654666 509
609139 607329 403
730469 477341 509
961452 994802 458
173568 798673 509
793028 813337 468
648995 292321 509
526038 838081 525
64219 725245 509
615395 326942 470
689324 942033 525
896203 873504 445
364845 656638 509
493236 762328 509
23150 663919 509
181508 357145 443
558094 821905 509
1211 539573 470
304093 61899 443
224745 657951 509
493492 550005 470
548673 633267 509
166860 981060 525
662831 702512 442
422560 502262 444
916075 607426 525
938346 508540 525
460894 747686 509
357315 129456 443
562094 138590 470
641328 915557 525
749415 781853 468
883737 785178 525
687219 803051 504
797354 883906 525
90681 666284 509
402452 346470 436
521206 883614 525
409587 971208 525
226703 538376 470
338460 724985 509
502146 744185 509
178235 510053 449
676128 488295 509
305556 410654 449
205052 219635 386
658573 731639 504
271201 665775 509
468404 914153 525
290510 983658 525
715492 108439 509
288915 839539 525
618887 133520 470
311055 381194 441
184133 477703 449
475461 749542 509
469397 252528 449
530177 948295 525
175475 799422 509
895624 786028 525
828722 367953 509
516701 299218 470
351505 801464 509
486364 874387 525
472535 789964 509
42427 127838 354
688278 424030 509
233530 332109 407
845324 913873 476
774084 388326 509
931591 724309 525
953863 58105 525
429158 739648 509
513440 837263 509
963597 515510 525
249818 862420 525
975096 742108 525
163773 819740 509
333887 818598 509
198697 886560 525
624868 265887 470
516034 809702 509
693153 344053 509
34180 546213 470
84129 636306 509
683369 733257 504
30834 927737 525
87730 118425 354
916864 939761 507
984473 93694 525
819249 97335 509
589032 258998 470
802075 782376 468
121356 826564 509
881959 321569 525
3946 483491 449
40357 695126 509
643623 841946 525
904382 305090 525
296124 885971 525
263133 32599 443
710037 905788 525
417692 437330 418
121233 991138 525
253661 763977 509
565392 258923 470
654600 883230 525
764877 314370 509
650697 505727 509
870205 295183 525
470522 758462 509
441512 249489 449
451001 152587 449
517402 231643 470
586570 283815 470
271602 151118 443
120216 619962 470
155323 944320 525
720071 686631 504
790017 280091 509
646729 434922 509
960397 859307 507
933690 685146 525
433021 995004 525
91762 97024 328
397428 926966 525
959572 610756 525
465360 403837 449
725707 707792 411
606296 788615 509
748368 548209 509
615362 441029 470
449478 955938 525
773146 508668 509
364440 843324 525
721394 504197 509
541025 837906 525
630535 651083 416
483576 97443 449
780870 322709 509
429938 163263 449
771319 683771 504
988950 286287 525
490273 592498 470
721153 782951 468
627831 449395 509
779697 86647 509
958728 643308 525
490401 744593 509
420859 192755 449
789426 20051 509
132599 775756 509
913456 751925 525
618672 425620 470
212947 711388 509
882303 80641 525
569117 645771 509
847988 835405 525
447457 559755 470
16452 525252 470
776654 143001 509
873107 452271 525
30511 335770 443
175616 966118 525
178378 457832 449
341992 579773 470
650118 805901 504
560054 642058 509
667386 163856 509
948823 727744 525
306234 749409 509
970633 986020 427
792186 423150 509
570142 755133 509
599003 118415 470
326074 984348 525
265876 924803 525
38940 14359 324
185129 618428 470
376266 667641 509
545094 468877 470
36254 56121 340
356037 155139 443
766184 71432 509
692047 560032 509
895421 453132 525
144356 426410 449
835093 978598 525
129245 52675 354
91334 526442 470
45415 761571 509
859566 398354 525
208755 161810 373
673780 462839 509
822296 816906 450
413534 731983 509
901755 380591 525
950561 461689 525
332494 72360 443
493401 675692 509
329159 893718 525
767421 519429 509
470453 214964 449
126558 791947 509
225437 223393 368
312655 495252 449
23608 850525 525
591544 745968 509
132697 326830 443
79563 819062 509
877403 836730 525
778973 267485 509
487023 84840 449
154756 216566 386
695370 771345 504
118042 663995 509
996790 413895 525
516141 884326 525
951933 377243 525
938980 448602 525
996121 227804 525
105989 320254 443
880340 951514 507
99815 97853 328
77613 18218 351
408204 222981 443
529496 121286 470
598723 295083 470
956104 572270 525
47864 745283 509
250474 807337 509
131481 111055 349
3039 18832 279
166292 826366 509
290984 870466 525
795600 137235 509
430727 169284 449
516564 3787 470
61567 658986 509
644924 503718 509
589747 929978 525
779360 691080 504
789862 889450 525
641701 56298 509
912797 839015 476
652256 480651 509
272932 826799 509
232142 657017 509
496442 892783 525
134820 177174 383
936857 290345 525
860416 688979 525
836200 264923 509
60532 411954 449
234188 667298 509
239711 997573 525
54555 127115 354
580305 734785 509
564687 245456 470
644950 326438 509
601483 971507 525
583202 983554 525
919254 594616 525
103712 909424 525
868170 489482 525
213738 542069 470
426070 715327 509
886880 562246 525
75666 162900 383
179896 690760 509
750879 658095 504
791957 439372 509
759639 720383 424
457107 368319 449
74105 703246 509
577468 8797 470
912607 469701 525
788102 610541 509
681497 106096 509
767687 298051 509
526640 903940 525
669960 358925 509
144694 197905 383
421763 380039 449
538028 886509 525
965226 612216 525
513874 610669 452
968335 398972 525
153296 570670 470
530347 819386 509
940576 539305 525
673793 962892 525
154928 969725 525
88545 943162 525
839838 956781 507
511507 600256 470
575371 194300 470
720188 437979 509
628061 968722 525
400300 787900 509
417070 791517 509
598370 526943 452
227895 949957 525
715474 946330 525
892203 837252 525
513030 381477 470
862838 817585 525
982222 380845 525
34250 426680 449
581396 329363 470
604780 232526 470
18581 80361 351
462986 979515 525
371380 237373 441
486581 495220 426
337608 717641 509
290702 194487 443
292469 152953 443
752920 397841 509
458269 65932 449
657160 506802 509
658029 214162 509
942915 19782 525
618444 13698 470
730784 766611 424
335161 748794 509
201784 514926 470
954622 438511 525
620167 75640 470
96255 314923 443
459484 33678 449
515920 183541 470
641055 326082 509
566034 707377 509
144466 171950 383
132621 245928 443
752352 232954 509
445597 483391 444
297667 690967 509
186186 24697 383
159993 304012 443
202902 665193 509
516140 830000 509
916609 335337 525
370107 17370 443
719785 4733 509
441082 199390 449
2300 425248 449
249280 883080 525
184535 537912 470
927369 751786 525
584593 585816 359
242863 269299 407
385895 588671 470
563819 390875 470
242348 2295 443
493628 203072 449
9467 777852 509
609131 251280 470
934974 828643 525
85284 74411 351
349269 17498 443
675062 538494 509
54741 281753 443
36593 690220 509
774562 53460 509
915580 96138 525
642585 517758 509
980629 746851 525
550889 318528 470
849383 97829 525
275445 5856 443
486631 730647 509
774390 14710 509
788111 986593 525
84848 286556 443
635633 590818 509
23392 827558 509
393226 690206 509
204485 31302 383
309548 553365 470
549921 56106 470
58587 735775 509
646748 400256 509
33501 736486 509
142925 330869 443
577934 477280 470
916798 207267 525
672016 487390 509
137453 303033 443
391816 467070 449
731450 853870 525
99243 151090 375
701071 547064 509
660425 763326 504
96391 586633 470
318831 236724 407
155530 239830 443
861286 809170 525
972968 843764 507
741004 792803 468
731500 598095 509
28990 190822 383
378149 994363 525
349838 532050 470
960907 999725 458
402939 838665 525
334977 231035 407
198020 657052 509
266256 787289 509
935212 784741 525
179011 593350 470
349239 913340 525
377541 918680 525
423730 949931 525
847051 669200 525
576620 613058 434
779821 923740 525
569046 790161 509
536528 638531 509
319666 13063 443
545655 544422 346
512155 561829 452
4300 376561 443
125440 976268 525
901114 816348 525
661165 527819 509
249261 299816 407
7610 321961 443
895194 837263 525
57291 131743 354
674659 122168 509
422445 612801 470
407590 607692 470
759725 317163 509
660673 741267 504
972480 970406 458
85953 155798 375
641932 714325 504
44066 808057 509
904615 971763 507
663869 781887 504
736073 395317 509
153030 982894 525
494249 285230 449
753566 736798 424
74268 149077 375
657210 318749 509
788914 632209 504
29193 899259 525
841972 631083 525
985370 259372 525
234176 584361 470
101213 211383 383
714376 300720 509
68078 542040 470
59108 80297 351
874077 676121 525
998940 98249 525
41155 931208 525
516039 540419 439
47850 751176 509
142658 615327 470
660016 588938 509
866880 117051 525
715590 262545 509
516883 748819 509
751067 443266 509
99510 348778 443
177084 418237 449
59094 839248 525
789917 809506 468
57590 121928 354
547378 266981 470
396034 367028 436
777329 954074 525
433564 231103 449
908813 11708 525
506526 839338 525
431209 804079 509
571033 290507 470
265254 672077 509
839034 969204 507
211078 448992 449
880688 964164 507
374179 555186 470
617808 799723 509
473934 773572 509
421615 430922 418
775704 993723 525
160131 20722 383
399895 379707 436
681641 105119 509
558609 175355 470
735051 186459 509
720564 170090 509
38455 930560 525
18044 522169 470
104474 96480 341
633052 88594 509
516669 58434 470
938501 407198 525
539712 341226 470
101017 860835 525
560046 165355 470
612397 399106 470
723546 922913 525
706504 292501 509
725657 306868 509
550269 830864 509
171929 975934 525
601523 706234 509
546690 321702 470
234879 569573 470
40968 769337 509
225324 348196 443
841674 794789 525
955467 240247 525
140005 680473 509
426049 344885 449
598821 30819 470
989266 613795 525
694206 25093 509
124832 810073 509
325850 455851 449
868783 360530 525
193131 435662 449
461669 707253 509
643800 101655 509
434365 664565 509
177001 140907 383
658346 177996 509
923735 633597 525
655838 197155 509
630104 298459 509
700705 290574 509
198777 863766 525
58959 60897 317
560903 455062 470
502461 257950 449
684952 706934 504
604606 907936 525
207474 198896 373
953884 104769 525
205530 944707 525
363793 551241 470
170824 182368 365
741358 434973 509
776997 36657 509
566145 912830 525
189028 124872 383
689628 230060 509
801992 489394 509
508331 839281 525
966031 414031 525
697671 138661 509
160740 269685 443
230650 279764 407
460443 699249 509
157079 999539 525
194193 402582 443
97884 234083 443
420735 582620 470
891089 620361 525
534791 876259 525
527941 588663 452
334483 817869 509
513704 101227 470
749148 262413 509
351694 148709 443
576867 343451 470
821554 985273 525
582416 285375 470
233073 358645 441
718220 488073 509
752068 811467 468
427391 478208 444
706632 512970 509
647165 921810 525
67738 489925 449
545248 309213 470
227948 365503 443
896627 673385 525
641601 390741 509
646289 555636 509
135439 749955 509
962691 733563 525
307272 745748 509
304166 17835 443
412326 541684 470
492192 59891 449
680016 985528 525
324600 792939 509
553098 799655 509
671336 962212 525
660480 803703 504
17995 400621 443
240936 353396 441
444029 628305 509
625969 21905 470
233243 30104 443
780903 931488 525
227070 614647 470
541438 411206 470
410846 903368 525
72631 374467 443
13294 519830 470
608970 264238 470
977640 340869 525
768571 277086 509
748749 878620 525
798473 167173 509
760828 406383 509
885881 84264 525
274082 247153 407
147628 79647 375
644107 318552 509
967883 82787 525
986267 376367 525
35360 879005 525
178761 325022 443
628512 91374 509
446865 404026 449
401425 163133 443
286030 637614 509
975859 257184 525
723564 223546 509
323473 736094 509
664637 125051 509
896557 549065 525
314029 76602 443
517254 498343 470
905321 503459 525
877171 49028 525
286383 62134 443
106448 69732 354
509947 208395 449
176294 536723 470
667346 846879 525
15582 515396 470
144747 308276 443
457719 221785 449
531545 69977 470
303888 153577 443
216301 741878 509
568210 501073 470
706734 196139 509
282898 592490 470
434185 715591 509
317558 939370 525
815546 724167 468
615250 289279 470
503627 594015 470
621232 349254 470
